Date,Start Time,Stop Time,Start DateTime,Duration (Hours),Duration (Hours text),Accumulative Duration,Total Duration,Task,Comments
2014-03-18,10:30:00,11:30am,2014-03-18 10:30:00,1,1h,1,1,Team Meeting,Caught up on missed details of the team
2014-03-19,11:30:00,1:30pm,2014-03-19 11:30:00,2,2h,3,3,Group Four Work,Learnt Unity and got used to the interface
2014-03-20,13:30:00,4:00pm,2014-03-20 13:30:00,2.5,2.5h,5.5,6,Group Four Work,Discussions with asset team and talk on prototype for next week
2014-03-23,9:30:00,11:30am,2014-03-23 9:30:00,2,2h,7.5,8,Unity Tutorials,Worked through parts of the Stealth tutorial
2014-03-23,21:30:00,11:30pm,2014-03-23 21:30:00,1.5,1.5h,9,9,Unity Tutorials + Work,Worked on sliding doors
2014-03-24,10:30:00,11:30am,2014-03-24 10:30:00,1,1h,10,10,Team Meeting,
2014-03-25,8:30:00,12:30pm,2014-03-25 8:30:00,4,4h,14,14,Group Four Work,
2014-03-28,14:30:00,4:30pm,2014-03-28 14:30:00,2,2h,16,16,Unity Work,Implemented main menu and pause menu
2014-03-29,11:30:00,12:30pm,2014-03-29 11:30:00,1,1h,17,17,Unity Work + Tutorials,Work on sound for player
2014-03-29,12:30:00,1:00am,2014-03-29 12:30:00,0.5,0.5h,17.5,18,Google Drive Work,Worklogs and roster
2014-04-01,10:30:00,11:30am,2014-04-01 10:30:00,1,1h,18.5,19,Team Meeting,
2014-04-02,10:30:00,1:00pm,2014-04-02 10:30:00,2.5,2.5h,21,21,Group Four Work,"Discussed details such as art style, attack animations"
2014-04-05,14:30:00,5:30pm,2014-04-05 14:30:00,3,3h,24,24,Unity Tutorials,"Audio Tutorials, Animation Tutorials and testing"
2014-04-06,19:30:00,8:30pm,2014-04-06 19:30:00,1,1h,25,25,Group Four Work,"Implemented sounds for firing attacks, and uploaded to Github"
2014-04-07,10:00:00,10:15am,2014-04-07 10:00:00,0.25,0.25h,25.25,25,Group Four Work,Tried to help a team member with packages in Unity
2014-04-07,16:45:00,6:30pm,2014-04-07 16:45:00,1.75,1.75h,27,27,Group Four Work,Compiled scripts and assets together and pull requests
2014-04-08,10:30:00,11:30am,2014-04-08 10:30:00,1,1h,28,28,Team Meeting,
2014-04-09,10:30:00,1pm,2014-04-09 10:30:00,2.5,2.5h,30.5,31,Group Four Work,"Enemy Animations, world sounds and sound assets"
2014-04-10,9:30:00,11:30am,2014-04-10 9:30:00,2,2h,32.5,33,Sound Meeting,Spoke with musicians on music for our game
2014-04-11,16:30:00,5:15pm,2014-04-11 16:30:00,0.75,0.75h,33.25,33,Group Four Work,Updated parts of SQAP document
2014-04-15,10:30:00,11:30am,2014-04-15 10:30:00,1,1h,34.25,34,Team Meeting,
2014-04-16,10:30:00,12:30pm,2014-04-16 10:30:00,2,2h,36.25,36,Group Four Work,
2014-04-22,19:00:00,7:30pm,2014-04-22 19:00:00,0.5,0.5h,36.75,37,Group Four Work,Bug fixing
2014-04-26,17:00:00,6:30pm,2014-04-26 17:00:00,1.5,1.5h,38.25,38,Group Four Work,Github and Trello work
2014-04-26,18:30:00,7:00pm,2014-04-26 18:30:00,0.5,0.5h,38.75,39,SQAP Work,
2014-04-27,10:30:00,12:30pm,2014-04-27 10:30:00,2,2h,40.75,41,SQAP Work,
2014-04-28,10:30:00,11:00am,2014-04-28 10:30:00,0.5,0.5h,41.25,41,Unity Work,NavMeshes
2014-04-28,20:30:00,9:30pm,2014-04-28 20:30:00,1,1h,42.25,42,SQAP Work,
2014-04-29,22:30:00,11:30pm,2014-04-29 22:30:00,1,1h,43.25,43,Team Meeting,
2014-04-30,22:30:00,1:15pm,2014-04-30 22:30:00,2.75,2.75h,46,46,Group Four Work,
2014-05-01,13:30:00,2:30pm,2014-05-01 13:30:00,1,1h,47,47,SQAP Work,
2014-05-05,10:00:00,12:00pm,2014-05-05 10:00:00,2,2h,49,49,Unity Work,Sliding Doors and Cursor
2014-05-05,13:30:00,2:30,2014-05-05 13:30:00,1,1h,50,50,SQAP Work,
2014-05-05,19:30:00,8:30pm,2014-05-05 19:30:00,1,1h,51,51,Unity Work,Github Issues and branch control
2014-05-06,10:30:00,11:30am,2014-05-06 10:30:00,1,1h,52,52,Team Meeting,
2014-05-07,10:30:00,1:15pm,2014-05-07 10:30:00,2.75,2.75h,54.75,55,Group Four Work,Collaborated a lot of work together
2014-05-08,17:30:00,7:30pm,2014-05-08 17:30:00,2,2h,56.75,57,Unity Work,"Implemented stacking of charges, broke puzzle interaction without doing anything"
2014-05-09,9:30:00,10:30am,2014-05-09 9:30:00,1,1h,57.75,58,Online Team Meeting,
2014-05-10,13:30:00,3:00pm,2014-05-10 13:30:00,1.5,1.5h,59.25,59,Unity Work,"Implemented a sound manager for BGM, coverted WAV files into OGG and fixed up Audio folder in the project"
2014-05-12,17:30:00,6:30pm,2014-05-12 17:30:00,1,1h,60.25,60,Online Team Meeting,
2014-05-14,8:30:00,1:30pm,2014-05-14 8:30:00,5,5h,65.25,65,Playtest and Meeting,
2014-05-14,14:00:00,4:30pm,2014-05-14 14:00:00,2.5,2.5h,67.75,68,Kickstarter Video,
2014-05-16,18:30:00,8:30pm,2014-05-16 18:30:00,2,2h,69.75,70,Kickstarter Video,
2014-05-17,20:30:00,9:30pm,2014-05-17 20:30:00,1,1h,70.75,71,Kickstarter Video,
2014-05-17,21:30:00,9:45pm,2014-05-17 21:30:00,0.25,0.25h,71,71,Meeting Minutes,
2014-05-20,22:30:00,11:30pm,2014-05-20 22:30:00,1,1h,72,72,Team Meeting,
2014-05-21,22:30:00,1:00pm,2014-05-21 22:30:00,2.5,2.5h,74.5,75,Team Meeting,
2014-05-23,21:30:00,10:30pm,2014-05-23 21:30:00,1,1h,75.5,76,Online Team Meeting,
2014-05-23,19:30:00,8:30pm,2014-05-23 19:30:00,1,1h,76.5,77,Slack,
2014-05-23,20:30:00,9:30pm,2014-05-23 20:30:00,1,1h,77.5,78,Unity Work,
2014-05-26,17:30:00,7:30pm,2014-05-26 17:30:00,2,2h,79.5,80,Unity Work,Implementing the hud
2014-06-02,11:00:00,4:30pm,2014-06-02 11:00:00,4.5,4.5h,84,84,Finalise Alpha Build,
2014-08-04,15:30:00,4:00pm,2014-08-04 15:30:00,0.5,0.5h,84.5,85,Lecture,
2014-08-11,11:30:00,12:30pm,2014-08-11 11:30:00,1,1h,85.5,86,Meeting with Clinton,
2014-08-11,12:30:00,3:30pm,2014-08-11 12:30:00,3,3h,88.5,89,Code Cleanup,
2014-08-14,9:30:00,1:00pm,2014-08-14 9:30:00,2.5,2.5h,91,91,Team Meeting,
2014-08-14,16:30:00,5:30pm,2014-08-14 16:30:00,1,1h,92,92,Research,Researched CharacterController and XInputDotNet to implement when code cleanup is done
2014-08-18,11:30:00,3:30pm,2014-08-18 11:30:00,3.75,3.75h,95.75,96,Code Cleanup,
2014-08-21,10:45:00,1:45pm,2014-08-21 10:45:00,3,3h,98.75,99,Team Meeting,"CodeClean, Meeting with Andy and XInputDotNet/CharacterController"
2014-08-21,19:15:00,8:15pm,2014-08-21 19:15:00,1,1h,99.75,100,Unity Work,XInputDotNet at home with testing
2014-08-25,7:30:00,8:30am,2014-08-25 7:30:00,1,1h,100.75,101,Unity Work,"Implemented UIM controller support, minor aiming bugs"
2014-08-26,12:30:00,1:30pm,2014-08-26 12:30:00,1,1h,101.75,102,Team Meeting,
2014-08-28,10:30:00,1:30pm,2014-08-28 10:30:00,3,3h,104.75,105,Group Four Meeting,
2014-08-31,10:00:00,1:30pm,2014-08-31 10:00:00,3.5,3.5h,108.25,108,Unity Work,HUGE changes to Player and Health
2014-09-01,8:45:00,10:15am,2014-09-01 8:45:00,1.5,1.5h,109.75,110,Unity Work,Start of implementing character controls
2014-09-02,12:30:00,1:30pm,2014-09-02 12:30:00,1,1h,110.75,111,Team Meeting,
2014-09-03,9:45:00,10:15am,2014-09-03 9:45:00,0.5,0.5h,111.25,111,Unity Work,
2014-09-04,10:45:00,1:45pm,2014-09-04 10:45:00,3,3h,114.25,114,Group Four Meeting,
2014-09-06,8:45:00,10:00am,2014-09-06 8:45:00,1.25,1.25h,115.5,116,Unity Work,
2014-09-07,8:30:00,12:00pm,2014-09-07 8:30:00,3.5,3.5h,119,119,Unity Work,
2014-09-07,17:30:00,7:00pm,2014-09-07 17:30:00,1.5,1.5h,120.5,121,Unity Work,"Trying to merge components together for the playtest on wednesday, and the only thing remaining in the player's animations. I will create a new branch off master and merge ONLY the XInput controls for the Playtest; the complete Player rework will not be completed before the playtest but I do want solid feedback from the controller input and what testers think of for the project"
2014-09-08,8:30:00,10:30am,2014-09-08 8:30:00,2,2h,122.5,123,Unity Work,"Created a playtest/playerControl branch with merge XInput functions that should be used for the Playtest this week, since the player refactor is not 100% complete and I would like some feedback from the play testers about the controller controls. Still works with Mouse and Keyboard and everything should work at the same time, however aiming is controller dependant so if the controller is plugged in, aiming can only be done by the controller. If no controller is plugged in, then normal mouse aim is turned on"
2014-09-08,17:30:00,6:30pm,2014-09-08 17:30:00,1,1h,123.5,124,Slack / Unity Work,"Looked into implementing Ash's level however the package that was delivered and I'm just going to say that the levels were a little under par for what they needed to be; I respect the work they've done but the package still had missing/incorrectly located materials, the scene itself wasn't located in the Scenes\Levels directory, both had a special directory attached to them (I think because they are FBX files and that folder is for textures) so when Unity loaded the mesh, it created the folder for the textures, I think. Next, the WaterLevel had missing textures (either because they weren't included or when I was placing some of the files into the correct location, they deattached) and ShootingRange was nice but it didn't have any colliders for the level, and honestly the level doesn't make sense since you can only see the first half of the room due to the angle of the camera. Bottom line is I simply can not include these in the playtest build that is going to happen on Wednesday due to this fact that they're simply NOT ready to be shown and it's sad because both the ideas of the levels are great. I'm hoping that on Thursday both Ash and I can sit down in the corner and get these levels INTO the game in all their glory and all issues can be solved!"
2014-09-09,9:00:00,10:15,2014-09-09 9:00:00,1.25,1.25h,124.75,125,Unity Work,"Merged the proper WaterLevel into a new branch but I had to fix all the issues: Mesh Colliders on EVERYTHING, textures located in the incorrect folders, implement the switches, add enemy AI, add entrance and an exit trigger so the player could leave and pushed it to a playtest/playerControlAndWaterLevel so Ash could test it out. Not going to do ShootingRange as I've got other subjects that need the attention at the moment. Unless something happens I'll be going to the Playtest to hopefully get some good constructive feedback about the new controls as I've personally found it a lot more fun playing with the controller."
2014-09-09,12:30:00,1:30pm,2014-09-09 12:30:00,1,1h,125.75,126,Team Meeting,
2014-09-16,19:30:00,9:30pm,2014-09-16 19:30:00,2,2h,127.75,128,Live Training,Watch two Live Training videos from the Unity website; Tips and Trick and Saving and Loading (Serialisation)
2014-09-18,10:30:00,4:30pm,2014-09-18 10:30:00,5,5h,132.75,133,Team Meeting,"Worked on InControl in the Bunker, discussed programming ideas and concepts with other programmers and oversaw progress from designers"
2014-09-18,19:30:00,8:45pm,2014-09-18 19:30:00,1.25,1.25h,134,134,Unity Work,"Tried to fix a bug with InControl with Alex that stopped the builds from being built; Still unfixed but one of the issues was that SourceTree was ignoring a Library folder inside of InControl that contained all of InControls functionality, meaning any build would fail since it didn't have those files."
2014-09-23,12:30:00,1:30pm,2014-09-23 12:30:00,1,1h,135,135,Team Meeting,
2014-09-25,10:30:00,1:30pm,2014-09-25 10:30:00,3,3h,138,138,Group Four Meeting,Major team meeting to discuss what we had planned for our week 10 playtest (3 weeks to go)
2014-09-28,10:45:00,1:45pm,2014-09-28 10:45:00,3,3h,141,141,Unity Work,"Had the cleanInControl pull request to clean up as a lot of bugs were introduced, but cleaned all except for 1 bug. Must finish KeyboardAndMouseProfile so it can be tested without controller"
2014-09-29,19:00:00,7:15pm,2014-09-29 19:00:00,0.25,0.25h,141.25,141,Unity Work,Looked into drawing a HUD on the screen as well as ensuring that it scales to the resolution of the screen
2014-09-30,8:00:00,10:00am,2014-09-30 8:00:00,2,2h,143.25,143,Live Training,"Watched the Audio and Object Pooling Live Training videos from the Unity Live Training Archive and now understand how to do audio properly and add effects to it if needed as well as maybe potentially using object pooling for the projectiles in the game, but that might be out of scope even though it would improve the quality of the game"
2014-09-30,0:30:00,1:00am,2014-09-30 0:30:00,0.5,0.5h,143.75,144,Team Meeting,
2014-10-02,10:30:00,1:30am,2014-10-02 10:30:00,3,3h,146.75,147,Group Four Meeting,"Huge day today, as I've suggested an idea to improve the overall converyance of the game by using the different colors of the controller buttons (X is Blue, A is Green and B is Red) so I started created a system so that pressing X gives you Water, A gives you Wood and pressing B gives you Fire and this changes what element the player has control of"
2014-10-04,6:00:00,7:00pm,2014-10-04 6:00:00,1,1h,147.75,148,Unity Work,Attempted to fix up the KeyboardAndMouseProfile so that a keyboard and mouse could control the game
2014-10-04,7:30:00,8:15am,2014-10-04 7:30:00,0.75,0.75h,148.5,149,Unity Work,Had issues with the branch and discussion on Github on attempting to solve the problem. Unsure how to fix some of the issues but hopefuly a solution can be found
2014-10-05,21:30:00,10:15pm,2014-10-05 21:30:00,0.75,0.75h,149.25,149,Unity Work,Started the HUD reworking branch and got a basic template setup so that information can be slotted in. Will require some images from the artists to make it all smoother
2014-10-06,20:00:00,12:45pm,2014-10-06 20:00:00,4.75,4.75h,154,154,Unity Work,"Working on the remaining bugs from the InControl branch, spent time on Waffle and Github collaborating with Alex and more changes to the HUD"
2014-10-06,15:30:00,4:30pm,2014-10-06 15:30:00,1,1h,155,155,Lecture,
2014-10-07,12:30:00,1:30am,2014-10-07 12:30:00,1,1h,156,156,Team Meeting,
2014-10-09,10:30:00,1:45pm,2014-10-09 10:30:00,3.25,3.25h,159.25,159,Group Four Meeting,
2014-10-10,17:00:00,7:00pm,2014-10-10 17:00:00,2,2h,161.25,161,Unity Work,
2014-10-11,15:00:00,5:30pm ,2014-10-11 15:00:00,2.5,2.5h,163.75,164,Unity Work,
2014-10-13,9:00:00,12:00pm,2014-10-13 9:00:00,3,3h,166.75,167,Unity Work,
2014-10-13,17:00:00,6:45pm,2014-10-13 17:00:00,1.75,1.75h,168.5,169,Unity Work,
2014-10-13,19:00:00,8:00pm,2014-10-13 19:00:00,1,1h,169.5,170,Unity Work,
2014-10-14,12:30:00,1:30pm,2014-10-14 12:30:00,1,1h,170.5,171,Team Meeting,
2014-10-15,16:00:00,4:15pm,2014-10-15 16:00:00,0.25,0.25h,170.75,171,Pull Request,
2014-10-16,10:30:00,1:45pm,2014-10-16 10:30:00,3.25,3.25h,174,174,Group Four Meeting,
2014-10-16,13:30:00,2:00pm,2014-10-16 13:30:00,0.5,0.5h,174.5,175,Unity Work,
2014-10-19,8:15:00,10:00am,2014-10-19 8:15:00,1.75,1.75h,176.25,176,Unity Work,
2014-10-19,17:00:00,6:30pm,2014-10-19 17:00:00,1.5,1.5h,177.75,178,Unity Work,
2014-10-20,22:00:00,1:15pm,2014-10-20 22:00:00,3.25,3.25h,181,181,Google Hangouts,"Spent a large amount of time with Ash and Jim working out issues related to SourceTree, Git and InControl"
2014-10-21,12:30:00,1:30pm,2014-10-21 12:30:00,1,1h,182,182,Team Meeting,
2014-10-22,10:00:00,11:30pm,2014-10-22 10:00:00,1.5,1.5h,183.5,184,Playtest,
2014-10-22,11:30:00,5:30pm,2014-10-22 11:30:00,6,6h,189.5,190,Video Recording,
2014-10-23,10:30:00,1:45pm,2014-10-23 10:30:00,3.25,3.25h,192.75,193,Group Four Meeting,
2014-10-23,15:00:00,5:00pm,2014-10-23 15:00:00,2,2h,194.75,195,Video Recording,
2014-10-24,18:30:00,7:30pm,2014-10-24 18:30:00,1,1h,195.75,196,Pull Request,
2014-10-26,11:30:00,12:30pm,2014-10-26 11:30:00,1,1h,196.75,197,Unity Work,
2014-10-27,20:15:00,11:00pm,2014-10-27 20:15:00,2.75,2.75h,199.5,200,Unity Work,
2014-10-28,22:45:00,11:15pm,2014-10-28 22:45:00,0.5,0.5h,200,200,Unity Work,
2014-10-30,10:30:00,3:00pm,2014-10-30 10:30:00,5.5,5.5h,205.5,206,Group Four Meeting,Finalise build for PAX