"","Date","Duration..Hours.","count"
"1","2014-03-03",2,1
"2","2014-03-05",1,1
"3","2014-03-06",3,1
"4","2014-03-10",2,1
"5","2014-03-12",1.4,1
"6","2014-03-13",3.15,4
"7","2014-03-16",3.3,4
"8","2014-03-17",1.5,1
"9","2014-03-18",1.25,1
"10","2014-03-20",5.5,4
"11","2014-03-25",2.9,9
"12","2014-03-26",2,1
"13","2014-03-27",6,1
"14","2014-03-30",1.5,1
"15","2014-04-01",1,1
"16","2014-04-03",7,1
"17","2014-04-05",2,1
"18","2014-04-06",3,1
"19","2014-04-09",2.5,1
"20","2014-04-10",6.5,1
"21","2014-04-12",2,1
"22","2014-04-14",2,1
"23","2014-04-15",1,1
"24","2014-04-17",2.5,1
"25","2014-04-24",2,1
"26","2014-04-25",1.5,1
"27","2014-04-28",6,1
"28","2014-04-30",9.5,1
"29","2014-05-01",5,1
"30","2014-05-02",0.33,1
"31","2014-05-06",1,1
"32","2014-05-08",5.5,1
"33","2014-05-10",0.33,1
"34","2014-05-11",6.5,1
"35","2014-05-12",3.5,1
"36","2014-05-13",1,1
"37","2014-05-14",1.8,1
"38","2014-05-15",1.7,1
"39","2014-05-20",1,1
"40","2014-05-22",3,1
"41","2014-05-25",7,4
"42","2014-05-26",3,1
"43","2014-05-29",2,1
"44","2014-06-02",1,1
"45","2014-08-02",3,1
"46","2014-08-05",0.5,1
"47","2014-08-07",0.5,1
"48","2014-08-10",2.5,1
"49","2014-08-12",1,1
"50","2014-08-14",2,1
"51","2014-08-16",5.08,4
"52","2014-08-18",1,1
"53","2014-08-19",0.5,1
"54","2014-08-21",2.5,1
"55","2014-08-26",0.783,1
"56","2014-08-27",2.6,1
"57","2014-08-28",1.5,1
"58","2014-08-29",4,1
"59","2014-08-31",1.16,1
"60","2014-09-02",4.83,9
"61","2014-09-03",0.5,1
"62","2014-09-04",2.5,1
"63","2014-09-05",3.6,4
"64","2014-09-07",1.5,1
"65","2014-09-09",1.3,1
"66","2014-09-10",1.6,1
"67","2014-09-11",3.5,1
"68","2014-09-14",0.5,1
"69","2014-09-17",1,1
"70","2014-09-22",3,1
"71","2014-09-23",1,1
"72","2014-09-24",4.16,1
"73","2014-09-25",2.6,1
"74","2014-09-27",3,1
"75","2014-09-30",0.5,1
"76","2014-10-01",10.383,9
"77","2014-10-02",1.5,1
"78","2014-10-07",0.65,1
"79","2014-10-08",3,1
"80","2014-10-09",5.8,4
"81","2014-10-11",2.5,1
"82","2014-10-12",2,1
"83","2014-10-13",1.5,1
"84","2014-10-14",0.6,1
"85","2014-10-16",1.3,1
"86","2014-10-17",5.5,4
"87","2014-10-20",1,1
"88","2014-10-21",0.7,1
"89","2014-10-22",5.6,1
"90","2014-10-23",0.83,1
"91","2014-10-24",5.5,1
"92","2014-10-25",3.283,1
"93","2014-10-27",2,1
"94","2014-10-28",4,1
"95","2014-10-29",3.5,4
"96","2014-10-30",2.83,1
"97","2014-11-05",0.58,1
"98","2014-11-06",1.3,1
"99","2014-01-01",16,1
