"","Date","Duration..Hours.","count"
"1","2014-03-03",2,1
"2","2014-03-05",3,1
"3","2014-03-07",3,1
"4","2014-03-10",4,4
"5","2014-03-12",3,4
"6","2014-03-13",3.25,4
"7","2014-03-14",1,1
"8","2014-03-16",0.75,1
"9","2014-03-17",5.5,16
"10","2014-03-18",1,1
"11","2014-03-19",2.5,1
"12","2014-03-20",7,4
"13","2014-03-23",1.25,4
"14","2014-03-24",16.08,25
"15","2014-03-25",1,1
"16","2014-03-26",3.5,4
"17","2014-03-27",2,16
"18","2014-03-29",2,1
"19","2014-03-31",1.5,1
"20","2014-04-01",1,1
"21","2014-04-02",6,4
"22","2014-04-03",2.5,4
"23","2014-04-05",2.5,4
"24","2014-04-06",2,1
"25","2014-04-07",4.75,9
"26","2014-04-08",1,1
"27","2014-04-09",8,1
"28","2014-04-10",2,1
"29","2014-04-14",2,1
"30","2014-04-15",1,1
"31","2014-04-16",4.5,4
"32","2014-04-18",5,1
"33","2014-04-21",1.67,1
"34","2014-04-23",5,1
"35","2014-04-24",5,1
"36","2014-04-25",5,1
"37","2014-04-28",1.5,1
"38","2014-04-29",1,1
"39","2014-04-30",6.78,9
"40","2014-05-03",2.12,9
"41","2014-05-05",3.29,25
"42","2014-05-06",2.25,4
"43","2014-05-07",12.24,100
"44","2014-05-08",5.6,81
"45","2014-05-09",2.49,9
"46","2014-05-11",2.63,36
"47","2014-05-12",4.65,25
"48","2014-05-13",1.75,4
"49","2014-05-14",7.88,36
"50","2014-05-15",5.92,1
"51","2014-05-16",7.36,9
"52","2014-05-17",2.89,4
"53","2014-05-18",5.17,49
"54","2014-05-19",3.33,4
"55","2014-01-01",16,1
