"","Date","Duration..Hours.","count"
"1","2014-03-05",3,1
"2","2014-03-07",3,1
"3","2014-03-10",2.08333333333333,4
"4","2014-03-11",2,1
"5","2014-03-12",5.46666666666667,16
"6","2014-03-13",4.25,4
"7","2014-03-14",1,1
"8","2014-03-17",4.5,9
"9","2014-03-18",1,1
"10","2014-03-19",5.25,4
"11","2014-03-20",5,4
"12","2014-03-22",2,1
"13","2014-03-23",0.75,4
"14","2014-03-24",4.66666666666667,16
"15","2014-03-25",1,1
"16","2014-03-26",7.5,9
"17","2014-03-27",4.5,4
"18","2014-03-29",1,1
"19","2014-03-30",1,1
"20","2014-03-31",1.5,1
"21","2014-04-01",1,1
"22","2014-04-02",5.25,9
"23","2014-04-03",3,1
"24","2014-04-05",2,1
"25","2014-04-06",1,1
"26","2014-04-07",3,4
"27","2014-04-09",8.66666666666667,1
"28","2014-04-10",2.75,4
"29","2014-04-11",0.75,1
"30","2014-04-14",2,1
"31","2014-04-15",1,1
"32","2014-04-16",8,9
"33","2014-04-17",2.5,1
"34","2014-04-18",1.5,4
"35","2014-04-21",6,4
"36","2014-04-22",2.75,1
"37","2014-04-27",1,1
"38","2014-04-28",2.25,4
"39","2014-04-29",1.5,4
"40","2014-04-30",6,1
"41","2014-05-01",2,4
"42","2014-05-03",1,4
"43","2014-05-05",2,4
"44","2014-05-06",1,1
"45","2014-05-07",8,1
"46","2014-05-08",4.25,9
"47","2014-05-09",1.58333333333333,4
"48","2014-05-10",0.25,1
"49","2014-05-11",2.5,1
"50","2014-05-12",5,25
"51","2014-05-13",2.5,4
"52","2014-05-14",9,16
"53","2014-05-16",4.5,4
"54","2014-05-17",3,1
"55","2014-05-19",5,4
"56","2014-05-20",1,1
"57","2014-05-21",8.25,1
"58","2014-05-23",1,1
"59","2014-05-27",1,1
"60","2014-05-28",6.5,4
"61","2014-05-30",1,1
"62","2014-06-02",7,1
"63","2014-06-03",7,25
"64","2014-06-04",7.5,9
"65","2014-06-05",1,1
"66","2014-01-01",16,1
