"","Date","Duration..Hours."
"1","2014-03-18",3.25
"2","2014-03-03",4.5
"3","2014-03-05",2.5
"4","2014-03-06",10
"5","2014-03-07",6
"6","2014-03-08",0.25
"7","2014-03-09",0.25
"8","2014-03-10",5
"9","2014-03-12",2.9
"10","2014-03-13",15.65
"11","2014-03-14",4.5
"12","2014-03-15",15
"13","2014-03-16",20.3
"14","2014-03-17",8.5
"15","2014-03-19",6
"16","2014-03-20",14.5
"17","2014-03-21",0.6
"18","2014-03-22",17
"19","2014-03-23",12
"20","2014-03-24",9.75
"21","2014-03-25",9.15
"22","2014-03-27",17.5
"23","2014-03-30",7
"24","2014-03-31",2.5
"25","2014-04-01",6
"26","2014-04-03",12.5
"27","2014-04-04",1.5
"28","2014-04-05",5.5
"29","2014-04-06",15
"30","2014-04-07",5
"31","2014-04-08",9.5
"32","2014-04-09",11
"33","2014-04-10",23
"34","2014-04-11",8.5
"35","2014-04-15",6
"36","2014-04-17",8
"37","2014-04-20",1
"38","2014-04-22",8
"39","2014-04-23",2.41
"40","2014-04-24",13.25
"41","2014-04-25",11
"42","2014-04-26",3.5
"43","2014-04-27",12.5
"44","2014-04-28",9.5
"45","2014-04-29",2
"46","2014-05-01",12.5
"47","2014-05-02",3.33
"48","2014-05-05",3.5
"49","2014-05-06",3.25
"50","2014-05-07",8
"51","2014-05-08",18.5
"52","2014-05-12",9
"53","2014-05-13",3
"54","2014-05-15",11.2
"55","2014-05-18",11
"56","2014-05-19",8.5
"57","2014-05-20",2
"58","2014-05-22",9.5
"59","2014-05-23",3.5
"60","2014-05-25",14
"61","2014-05-26",11
"62","2014-05-27",8
"63","2014-05-28",2
"64","2014-05-29",6
"65","2014-08-12",3
"66","2014-08-14",10
"67","2014-08-15",0.5
"68","2014-08-16",10.08
"69","2014-08-17",3.5
"70","2014-08-20",2.3
"71","2014-08-21",12
"72","2014-08-23",4
"73","2014-08-25",8
"74","2014-08-28",9
"75","2014-08-30",8
"76","2014-08-31",4.16
"77","2014-09-01",8.5
"78","2014-09-02",5.83
"79","2014-09-04",9.5
"80","2014-09-06",7
"81","2014-09-07",18
"82","2014-09-08",0.5
"83","2014-09-09",10.8
"84","2014-09-11",12.5
"85","2014-09-18",4
"86","2014-09-19",6
"87","2014-09-20",3
"88","2014-09-21",11
"89","2014-09-22",17
"90","2014-09-23",3
"91","2014-09-24",6.16
"92","2014-09-25",10.6
"93","2014-09-27",6
"94","2014-09-29",5
"95","2014-09-30",9.5
"96","2014-10-02",11
"97","2014-10-03",12
"98","2014-10-04",5.5
"99","2014-10-05",9
"100","2014-10-07",2.65
"101","2014-10-09",13.8
"102","2014-10-10",2
"103","2014-10-13",7
"104","2014-10-14",9.6
"105","2014-10-15",5
"106","2014-10-16",11.8
"107","2014-10-17",17.5
"108","2014-10-19",4.5
"109","2014-10-20",17.5
"110","2014-10-21",8.7
"111","2014-10-22",17.1
"112","2014-10-23",13.08
"113","2014-10-24",18.5
"114","2014-10-25",10.783
"115","2014-10-26",23
"116","2014-10-30",10.83
"117","2014-10-31",9
"118","2014-03-26",2
"119","2014-04-12",2
"120","2014-04-14",2
"121","2014-04-30",9.5
"122","2014-05-10",0.33
"123","2014-05-11",13.5
"124","2014-05-14",3.3
"125","2014-06-02",1
"126","2014-08-02",3
"127","2014-08-05",1.5
"128","2014-08-07",0.5
"129","2014-08-10",2.5
"130","2014-08-18",4
"131","2014-08-19",1.5
"132","2014-08-26",2.283
"133","2014-08-27",2.6
"134","2014-08-29",9
"135","2014-09-03",0.5
"136","2014-09-05",7.6
"137","2014-09-10",1.6
"138","2014-09-14",0.5
"139","2014-09-17",3
"140","2014-10-01",10.383
"141","2014-10-08",5
"142","2014-10-11",2.5
"143","2014-10-12",4
"144","2014-10-27",4
"145","2014-10-28",6
"146","2014-10-29",4.5
"147","2014-11-05",0.58
"148","2014-11-06",1.3
"149","2014-03-29",2
"150","2014-04-02",5
"151","2014-04-13",1
"152","2014-05-03",1.5
"153","2014-05-09",1
"154","2014-05-16",2
"155","2014-05-17",2
"156","2014-05-24",3.5
"157","2014-06-04",2
"158","2014-06-05",1.5
"159","2014-06-06",0.5
"160","2014-08-03",3.5
"161","2014-08-04",1
"162","2014-08-11",2
"163","2014-10-06",3.5
