"","Date","Duration..Hours.","count"
"1","2014-07-16",1.5,1
"2","2014-07-23",2,1
"3","2014-07-25",4,4
"4","2014-08-04",0.5,1
"5","2014-08-07",3.75,4
"6","2014-08-11",4.5,9
"7","2014-08-12",1,1
"8","2014-08-14",4.5,9
"9","2014-08-15",0.5,1
"10","2014-08-18",5.5,4
"11","2014-08-19",2.5,4
"12","2014-08-21",4,9
"13","2014-08-24",4,4
"14","2014-08-25",0.5,1
"15","2014-09-05",1,1
"16","2014-09-06",0.5,1
"17","2014-09-09",1,1
"18","2014-09-11",5,9
"19","2014-09-18",7.25,1
"20","2014-09-19",4,4
"21","2014-09-23",1,1
"22","2014-09-25",3.5,4
"23","2014-09-27",2.5,9
"24","2014-09-30",1,1
"25","2014-10-01",4.75,9
"26","2014-10-02",3.5,4
"27","2014-10-04",3.5,4
"28","2014-10-06",2.5,1
"29","2014-10-07",1,1
"30","2014-10-09",4.25,9
"31","2014-10-10",2.35,9
"32","2014-10-11",2.75,4
"33","2014-10-13",7,25
"34","2014-10-14",6,36
"35","2014-10-15",1.5,1
"36","2014-10-16",6.5,16
"37","2014-10-17",1,1
"38","2014-10-18",1.75,9
"39","2014-10-19",3.25,9
"40","2014-10-20",1.5,4
"41","2014-10-21",3.25,16
"42","2014-10-22",6.5,9
"43","2014-10-23",6.5,16
"44","2014-10-24",8.75,25
"45","2014-10-26",2,1
"46","2014-10-27",6,9
"47","2014-10-28",0.25,1
"48","2014-10-30",5.5,16
"49","2014-11-01",0.25,1
"50","2014-11-04",1.5,4
"51","2014-11-05",1,1
"52","2014-11-08",5.75,9
"53","2014-11-09",5.5,4
"54","2014-11-10",1.75,1
"55","2014-01-01",16,1
