"","Date","Duration..Hours."
"1","2014-03-18",3
"2","2014-03-03",2
"3","2014-03-05",6
"4","2014-03-07",6
"5","2014-03-10",6.08333333333333
"6","2014-03-12",8.46666666666667
"7","2014-03-13",7.5
"8","2014-03-14",2
"9","2014-03-16",0.75
"10","2014-03-17",10
"11","2014-03-19",9.75
"12","2014-03-20",14.5
"13","2014-03-23",5.5
"14","2014-03-24",21.7466666666667
"15","2014-03-25",6
"16","2014-03-26",11
"17","2014-03-27",6.5
"18","2014-03-29",4.5
"19","2014-03-31",3
"20","2014-04-01",3
"21","2014-04-02",13.75
"22","2014-04-03",5.5
"23","2014-04-05",7.5
"24","2014-04-06",4
"25","2014-04-07",9.75
"26","2014-04-08",2
"27","2014-04-09",19.1666666666667
"28","2014-04-10",6.75
"29","2014-04-14",4
"30","2014-04-15",3
"31","2014-04-16",14.5
"32","2014-04-18",6.5
"33","2014-04-21",7.67
"34","2014-04-23",5
"35","2014-04-24",5
"36","2014-04-25",5
"37","2014-04-28",5.25
"38","2014-04-29",3.5
"39","2014-04-30",15.53
"40","2014-05-03",3.12
"41","2014-05-05",9.29
"42","2014-05-06",4.25
"43","2014-05-07",22.99
"44","2014-05-08",11.85
"45","2014-05-09",5.07333333333333
"46","2014-05-11",5.13
"47","2014-05-12",10.65
"48","2014-05-13",4.25
"49","2014-05-14",24.38
"50","2014-05-15",5.92
"51","2014-05-16",13.86
"52","2014-05-17",7.14
"53","2014-05-18",5.17
"54","2014-05-19",8.33
"55","2014-07-16",3.65
"56","2014-07-25",4.25
"57","2014-08-04",1.8
"58","2014-08-07",6.75
"59","2014-08-11",11.14
"60","2014-08-12",1.77
"61","2014-08-14",11.09
"62","2014-08-15",6.08
"63","2014-08-16",0.77
"64","2014-08-17",0.71
"65","2014-08-18",15.98
"66","2014-08-19",3.1
"67","2014-08-20",3.93
"68","2014-08-21",11.54
"69","2014-08-22",6.42
"70","2014-08-23",0.99
"71","2014-08-26",2.01
"72","2014-08-27",4.62
"73","2014-08-28",5.11
"74","2014-09-01",3.55
"75","2014-09-02",2.1
"76","2014-09-04",7.33
"77","2014-09-07",5.22
"78","2014-09-08",3.26
"79","2014-09-09",3.98
"80","2014-09-11",11.25
"81","2014-09-12",1.99
"82","2014-09-18",21.39
"83","2014-09-19",7.36
"84","2014-09-21",0.23
"85","2014-09-22",3.23
"86","2014-09-23",2.44
"87","2014-09-24",1.59
"88","2014-09-25",11.96
"89","2014-09-26",0.31
"90","2014-09-28",4
"91","2014-09-29",0.53
"92","2014-09-30",4.11
"93","2014-10-01",6.12
"94","2014-10-02",10.07
"95","2014-10-03",1.26
"96","2014-10-04",6.01
"97","2014-10-05",8.49
"98","2014-10-06",10.7
"99","2014-10-07",3.04
"100","2014-10-09",13.62
"101","2014-10-10",8.28
"102","2014-10-11",6.91
"103","2014-10-13",19.24
"104","2014-10-14",10.69
"105","2014-10-15",10.27
"106","2014-10-16",14.81
"107","2014-10-17",3.29
"108","2014-10-18",7.76
"109","2014-10-19",7.41
"110","2014-10-20",5.2
"111","2014-10-21",5.1
"112","2014-10-22",23.12
"113","2014-10-23",18.96
"114","2014-10-24",12.78
"115","2014-10-25",3.04
"116","2014-10-26",7.58
"117","2014-10-27",16.96
"118","2014-10-28",3.14
"119","2014-10-30",15.58
"120","2014-11-05",1.8
"121","2014-03-28",2
"122","2014-04-11",1.5
"123","2014-04-22",3.25
"124","2014-04-26",2
"125","2014-04-27",3
"126","2014-05-01",3
"127","2014-05-10",1.75
"128","2014-05-20",2
"129","2014-05-21",10.75
"130","2014-05-23",4
"131","2014-05-26",2
"132","2014-06-02",11.5
"133","2014-08-25",1.5
"134","2014-08-31",3.5
"135","2014-09-03",0.5
"136","2014-09-06",1.75
"137","2014-09-16",2
"138","2014-03-11",2
"139","2014-03-22",2
"140","2014-03-30",1
"141","2014-04-17",2.5
"142","2014-05-27",1
"143","2014-05-28",6.5
"144","2014-05-30",1
"145","2014-06-03",7
"146","2014-06-04",7.5
"147","2014-06-05",1
"148","2014-07-23",2
"149","2014-08-24",4
"150","2014-09-05",1
"151","2014-09-27",2.5
"152","2014-11-01",0.25
"153","2014-11-04",1.5
"154","2014-11-08",5.75
"155","2014-11-09",5.5
"156","2014-11-10",1.75
