"","Date","Duration..Hours.","count"
"1","2014-08-05",0.5,1
"2","2014-08-08",4,1
"3","2014-08-12",1,1
"4","2014-08-13",5,1
"5","2014-08-19",1,1
"6","2014-08-20",4.5,1
"7","2014-08-26",1,1
"8","2014-08-27",5.5,1
"9","2014-08-29",8,1
"10","2014-09-03",5.5,1
"11","2014-09-04",2.5,1
"12","2014-09-10",6,1
"13","2014-09-17",5,1
"14","2014-09-19",8,1
"15","2014-09-20",4,1
"16","2014-09-23",1,1
"17","2014-09-24",5,1
"18","2014-09-26",7.5,1
"19","2014-09-28",5.5,1
"20","2014-09-30",1,1
"21","2014-10-01",5,1
"22","2014-10-02",8,1
"23","2014-10-05",6,1
"24","2014-10-07",1,1
"25","2014-10-08",8.5,4
"26","2014-10-12",5,1
"27","2014-10-13",3,1
"28","2014-10-14",1,1
"29","2014-10-15",5,1
"30","2014-10-19",6,1
"31","2014-10-21",7.5,4
"32","2014-10-22",5.5,1
"33","2014-10-25",9,1
"34","2014-10-27",4,1
"35","2014-10-28",10,1
"36","2014-10-29",4,1
"37","2014-11-02",4,1
"38","2014-11-05",4,9
"39","2014-11-09",7,1
"40","2014-01-01",16,1
